<?xml version="1.0" encoding="utf-8"?>
<!-- Generator: Adobe Illustrator 22.0.0, SVG Export Plug-In . SVG Version: 6.00 Build 0)  -->
<svg version="1.2" baseProfile="tiny" id="Calque_1"
	 xmlns="http://www.w3.org/2000/svg" xmlns:xlink="http://www.w3.org/1999/xlink" x="0px" y="0px" viewBox="0 0 350 350"
	 xml:space="preserve">
<g>
	<g>
		<path fill="#221F20" d="M272,296.4c0.2-2.1,1.1-3.7,2.8-4.9c5.5-5.7,7.4,1.4,8.7,4.7c2.7,6.6,0.1,12.9-4.1,17.8
			c-8.4,9.9-24.8,8.6-36,6.2c-30.1-6.4-50.4-35-77-49c-22.3-11.7-47.4-16.9-71.8-9.1c-26.3,8.4-41,35.2-53.3,57.9
			c-0.8,1.6,9.5,8,9.8,7.5c16.1-29.8,34.8-58.2,71.5-61.6c16.6-1.5,33.5,3.5,48.3,10.6c18.1,8.7,32.1,24.2,48.7,35.3
			c18.5,12.4,57.3,31.3,73,5c10.7-17.9-25.4-45.4-30.6-27.9C261.5,291.3,272.1,296.2,272,296.4L272,296.4z"/>
	</g>
	<g>
		<path fill="#221F20" d="M151.3,297.7c-8.7,0.9-25.2,6.2-22.5,18.3c2.5,11.7,14.4,20,26.5,19c31.3-2.6,45.8-45.5,33.6-71.4
			c-14.6-30.9-48-41.9-80.2-39.5c-36.4,2.7-71,22.6-94.6,49.7c-4,4.5,6.3,11.2,9.6,7.5c28.9-33.2,77.3-57.7,121.9-45.5
			c24.2,6.6,38.6,29,35.3,53.4c-1.6,11.7-7.7,23.7-16.5,31.5c-2.5,2.1-5.3,3.5-8.4,4.4c-8.4,3.1-13.3-0.6-14.8-10.9
			c2.1-5.4,10.3-7,15.2-7.5C163.9,306,156.4,297.2,151.3,297.7L151.3,297.7z"/>
	</g>
	<g>
		<path fill="#221F20" d="M68.6,81.9c11.7-3,5.4-14.5-0.6-19.6c-7.7-6.5-15.5-11.6-25.9-10.4c-14,1.7-16.8,21.2-16.5,31.9
			c0.5,17,10,33,19.4,46.6c20.4,29.7,41.6,55.6,38.6,93.9c-2.9,36.4-34.9,54.9-64.3,69.4c0.6-0.3,7.3,8.8,9.8,7.5
			c23-11.4,46.3-23.7,58.4-47.5c11.8-23.4,6-52.5-4.8-75c-12.2-25.5-34.2-44.4-44-71.3c-4.7-12.8-5.1-27.2,1.6-39.2
			c2.5-4.6,6.8-7.2,11.6-8.8c11.9-3.9,19.1,11.8,6.9,14.9C60.2,74,65.4,82.7,68.6,81.9L68.6,81.9z"/>
	</g>
	<g>
		<path fill="#221F20" d="M44,189c-0.5,3.9-1.6,7.3-3.4,10.7c-2.9,5.9-7.2,5.5-12.7-1.1c-0.8-3.1-0.8-6.2-0.2-9.3
			c1.5-12.3,14.9-19.4,25.1-23.2c29.2-10.9,53.3,7.1,61.6,34.8c13.2,44.3-16.4,95.2-49.8,122.2c-4.5,3.7,5.6,10.7,9.6,7.5
			c27.7-22.3,46.2-53,52.8-88c6.2-32.8-5.2-67.6-35.9-83.5c-24.9-12.9-67-2.8-74.7,26.5c-3.4,12.9,6,25.2,18,28.3
			c13,3.3,19.9-10.6,21.4-21.1C56.3,187.7,44.9,183.2,44,189L44,189z"/>
	</g>
	<g>
		<path fill="#221F20" d="M107.4,321.2c-1.5,12.5-12.3,17.6-23.9,16.4c-10.8-1.2-18.6-10.4-27-16.3c-15.7-11.1-40.2,6.4-53.3,14.8
			c-1.7,1.1,5.1,11.4,7.1,10.2c10.1-6.4,20.6-11.8,31.7-16.1c14.7-5.7,22.3,3.6,33.2,11.5c13.6,9.9,37.3,9.1,39.6-11.1
			C115.3,327.3,107.5,320.5,107.4,321.2L107.4,321.2z"/>
	</g>
	<g>
		<path fill="#221F20" d="M23.5,331.5c7-13.1,7.3-27.2,1.1-40.6c-3.2-6.9-8.3-12.6-11.2-19.8c-4.2-10.6,5-19.4,12-25.8
			c3.2-2.9-8-7.6-11.1-4.7c-9.7,8.9-18.2,19.7-11.1,33.1c4.7,8.8,10.7,16.3,13.2,26.2c2.4,9.7-0.3,19.7-4.8,28.3
			C9.8,331.5,21.4,335.5,23.5,331.5L23.5,331.5z"/>
	</g>
	<g>
		<path fill="#221F20" d="M337.6,300.9c-9.6,0.8-19.1,1-28.7,0.4c-3-0.2-4.7,3-4,5.6c1,3.2,4,4.9,7.1,5.1c9.6,0.5,19.1,0.4,28.7-0.4
			C348.5,310.9,343.8,300.4,337.6,300.9L337.6,300.9z"/>
	</g>
	<g>
		<path fill="#221F20" d="M43.1,34.3c0.6-10.3,0.5-20.6-0.5-30.9c-0.5-5.6-11.2-9.8-10.5-2.1c0.9,9.5,1,18.9,0.4,28.3
			C32.2,34.9,42.7,41.1,43.1,34.3L43.1,34.3z"/>
	</g>
</g>
</svg>
