<?xml version="1.0" encoding="utf-8"?>
<!-- Generator: Adobe Illustrator 16.0.0, SVG Export Plug-In . SVG Version: 6.00 Build 0)  -->
<!DOCTYPE svg PUBLIC "-//W3C//DTD SVG 1.1//EN" "http://www.w3.org/Graphics/SVG/1.1/DTD/svg11.dtd">
<svg version="1.1" id="Calque_1" xmlns="http://www.w3.org/2000/svg" xmlns:xlink="http://www.w3.org/1999/xlink" x="0px" y="0px"
	 width="430px" height="270px" viewBox="0 0 430 270" enable-background="new 0 0 430 270" xml:space="preserve">
<g>
	<g>
		<g>
			<path fill="none" stroke="#FFFFFF" stroke-width="12" stroke-miterlimit="10" d="M215.578,51.069
				c-99.854,0-181.414,77.941-184.221,174.791h368.44C396.957,129.012,315.397,51.069,215.578,51.069z M208.475,80.692
				c-73.144,0-136.125,55.916-143.478,127.339c-0.248,2.67-2.593,4.68-5.293,4.68c-0.178,0-0.354,0-0.532-0.034
				c-2.912-0.277-5.079-2.845-4.76-5.689c7.851-76.656,75.521-136.702,154.064-136.702c2.948,0,5.328,2.325,5.328,5.205
				C213.802,78.368,211.421,80.692,208.475,80.692z"/>
		</g>
		<g>
			<path fill="none" stroke="#FFFFFF" stroke-width="12" stroke-miterlimit="10" d="M415.962,242.266v8.672c0,3.296-2.735,6-6.147,6
				H21.305c-3.375,0-6.146-2.704-6.146-6v-8.672c0-3.328,2.771-6,6.146-6h388.509C413.227,236.266,415.962,238.936,415.962,242.266z
				"/>
		</g>
		
			<ellipse fill="none" stroke="#FFFFFF" stroke-width="12" stroke-miterlimit="10" cx="215.579" cy="30.906" rx="20.649" ry="20.162"/>
	</g>
</g>
</svg>
