<?xml version="1.0" encoding="utf-8"?>
<!-- Generator: Adobe Illustrator 16.0.0, SVG Export Plug-In . SVG Version: 6.00 Build 0)  -->
<!DOCTYPE svg PUBLIC "-//W3C//DTD SVG 1.1//EN" "http://www.w3.org/Graphics/SVG/1.1/DTD/svg11.dtd">
<svg version="1.1" id="Calque_1" xmlns="http://www.w3.org/2000/svg" xmlns:xlink="http://www.w3.org/1999/xlink" x="0px" y="0px"
	 width="148px" height="148px" viewBox="0 0 148 148" enable-background="new 0 0 148 148" xml:space="preserve">
<g>
	<path fill="#E52420" stroke="#FF0000" stroke-width="12" stroke-miterlimit="10" d="M73.999,12.013
		C39.684,12.013,11.766,39.82,11.766,74c0,34.179,27.918,61.986,62.233,61.986c34.316,0,62.234-27.807,62.234-61.986
		C136.233,39.82,108.315,12.013,73.999,12.013z M73.999,134.309c-33.386,0-60.547-27.055-60.547-60.309
		c0-33.254,27.161-60.308,60.547-60.308S134.547,40.746,134.547,74C134.547,107.254,107.385,134.309,73.999,134.309z"/>
	<path fill="#E52420" stroke="#FF0000" stroke-width="12" stroke-miterlimit="10" d="M100.028,73.16H74.842V48.074
		c0-0.463-0.377-0.839-0.844-0.839c-0.465,0-0.843,0.376-0.843,0.839V73.16H47.972c-0.467,0-0.844,0.376-0.844,0.84
		s0.377,0.84,0.844,0.84h25.185v25.086c0,0.463,0.377,0.84,0.843,0.84s0.843-0.377,0.843-0.84V74.84h25.187
		c0.465,0,0.843-0.375,0.843-0.839C100.871,73.536,100.493,73.16,100.028,73.16z"/>
</g>
</svg>
